91234 93000 333
1 1 1
2 2 2
3 3 8
200 100 125
210 201 89
3 999997 525
6 999994 525
9 999991 525
12 999988 525
15 999985 525
18 999982 525
21 999979 525
25 999975 525
28 999972 525
31 999969 525
34 999966 525
37 999963 525
40 999960 525
43 999957 525
47 999953 525
50 999950 525
53 999947 525
56 999944 525
59 999941 525
62 999938 525
65 999935 525
69 999931 525
72 999928 525
75 999925 525
78 999922 525
81 999919 525
84 999916 525
87 999913 525
91 999909 525
94 999906 525
97 999903 525
100 999900 525
103 999897 525
106 999894 525
109 999891 525
113 999887 525
116 999884 525
119 999881 525
122 999878 525
125 999875 525
128 999872 525
131 999869 525
135 999865 525
138 999862 525
141 999859 525
144 999856 525
147 999853 525
150 999850 525
153 999847 525
157 999843 525
160 999840 525
163 999837 525
166 999834 525
169 999831 525
172 999828 525
175 999825 525
179 999821 525
182 999818 525
185 999815 525
188 999812 525
191 999809 525
194 999806 525
197 999803 525
201 999799 525
204 999796 525
207 999793 525
210 999790 525
213 999787 525
216 999784 525
219 999781 525
223 999777 525
226 999774 525
229 999771 525
232 999768 525
235 999765 525
238 999762 525
241 999759 525
245 999755 525
248 999752 525
251 999749 525
254 999746 525
257 999743 525
260 999740 525
263 999737 525
267 999733 525
270 999730 525
273 999727 525
276 999724 525
279 999721 525
282 999718 525
285 999715 525
289 999711 525
292 999708 525
295 999705 525
298 999702 525
301 999699 525
304 999696 525
307 999693 525
311 999689 525
314 999686 525
317 999683 525
320 999680 525
323 999677 525
326 999674 525
329 999671 525
333 999667 525
336 999664 525
339 999661 525
342 999658 525
345 999655 525
348 999652 525
351 999649 525
354 999646 525
358 999642 525
361 999639 525
364 999636 525
367 999633 525
370 999630 525
373 999627 525
376 999624 525
380 999620 525
383 999617 525
386 999614 525
389 999611 525
392 999608 525
395 999605 525
398 999602 525
402 999598 525
405 999595 525
408 999592 525
411 999589 525
414 999586 525
417 999583 525
420 999580 525
424 999576 525
427 999573 525
430 999570 525
433 999567 525
436 999564 525
439 999561 525
442 999558 525
446 999554 525
449 999551 525
452 999548 525
455 999545 525
458 999542 525
461 999539 525
464 999536 525
468 999532 525
471 999529 525
474 999526 525
477 999523 525
480 999520 525
483 999517 525
486 999514 525
490 999510 525
493 999507 525
496 999504 525
499 999501 525
502 999498 525
505 999495 525
508 999492 525
512 999488 525
515 999485 525
518 999482 525
521 999479 525
524 999476 525
527 999473 525
530 999470 525
534 999466 525
537 999463 525
540 999460 525
543 999457 525
546 999454 525
549 999451 525
552 999448 525
556 999444 525
559 999441 525
562 999438 525
565 999435 525
568 999432 525
571 999429 525
574 999426 525
578 999422 525
581 999419 525
584 999416 525
587 999413 525
590 999410 525
593 999407 525
596 999404 525
600 999400 525
603 999397 525
606 999394 525
609 999391 525
612 999388 525
615 999385 525
618 999382 525
622 999378 525
625 999375 525
628 999372 525
631 999369 525
634 999366 525
637 999363 525
640 999360 525
644 999356 525
647 999353 525
650 999350 525
653 999347 525
656 999344 525
659 999341 525
662 999338 525
666 999334 525
669 999331 525
672 999328 525
675 999325 525
678 999322 525
681 999319 525
684 999316 525
688 999312 525
691 999309 525
694 999306 525
697 999303 525
700 999300 525
703 999297 525
706 999294 525
709 999291 525
713 999287 525
716 999284 525
719 999281 525
722 999278 525
725 999275 525
728 999272 525
731 999269 525
735 999265 525
738 999262 525
741 999259 525
744 999256 525
747 999253 525
750 999250 525
753 999247 525
757 999243 525
760 999240 525
763 999237 525
766 999234 525
769 999231 525
772 999228 525
775 999225 525
779 999221 525
782 999218 525
