1 999999 525
261754 289755 407
165171 535519 470
416165 823319 509
139652 588584 470
434039 527063 470
32955 521320 470
906759 951177 507
317701 879904 525
364186 568685 470
933513 940873 507
355685 828443 509
924318 978934 507
157563 724102 509
134133 728623 509
770056 810768 468
408742 625128 470
931147 980532 507
650740 913192 525
97640 444664 449
746240 781599 468
978873 985699 427
601506 641234 509
355645 920004 525
805156 842128 525
160688 264974 443
945411 983861 458
922843 964998 507
877042 893607 445
13606 711331 509
260503 711703 509
628159 742054 504
848176 942571 507
792215 890328 525
906619 977368 507
322012 919376 525
937886 963969 507
948408 970240 414
219222 857523 525
491303 600791 470
56589 789062 509
763048 924689 525
168364 781828 509
871730 883176 432
282651 308173 389
89285 308856 443
185350 986145 525
245103 592091 470
276752 492646 449
565147 831049 509
443525 539110 470
868935 978323 507
220749 394148 443
953507 955502 383
670453 724705 504
464350 782442 509
96801 921151 525
245395 631083 509
429642 830810 509
343276 858009 525
518814 937560 525
288151 442472 449
150007 764293 509
770396 806831 468
603277 717575 509
642834 714145 504
739055 931772 525
460918 930247 525
878169 989645 507
916128 961326 507
859236 952294 507
792017 841597 525
640581 988949 525
770260 931575 525
670890 867576 525
815221 914158 525
546098 586862 452
926574 961557 507
185683 989496 525
639216 984449 525
548865 751093 509
868468 886525 432
826525 984938 525
280430 291204 389
260164 589986 470
253317 356504 441
93389 567807 470
624495 732987 509
599098 832099 509
836897 857396 525
508291 966707 525
492398 859140 525
304547 375202 441
783199 816638 468
632294 996212 525
311895 654691 509
737171 740458 424
501784 682128 509
542454 794648 509
268390 559770 470
495125 854309 525
471075 784691 509
116097 763888 509
871540 994116 507
6677 479988 449
501537 982836 525
393260 527175 470
602063 948697 525
929259 966492 507
704389 963082 525
840382 894927 445
259064 560441 470
713000 948201 525
141249 224375 386
575767 735801 509
90777 241501 443
480403 789032 509
208462 799387 509
657423 817360 504
828049 976524 525
304792 515346 470
211773 972004 525
356225 758488 509
912211 962331 507
231803 886625 525
363389 670599 509
149237 649863 509
649739 810184 504
416006 423154 387
634044 968862 525
233332 355065 441
95370 286278 443
803026 922047 525
826589 901385 525
900187 913619 476
157253 657009 509
16928 592611 470
419383 844916 525
215567 347044 443
658637 796499 504
464547 637993 509
552260 653464 509
160831 275074 443
476022 545736 470
25691 412033 449
84964 384612 443
867592 987526 507
5464 855866 525
519 222920 386
647419 797619 504
519395 651573 509
622038 670089 509
206404 332698 443
425828 478751 444
889368 930833 476
902046 914409 476
139195 315581 443
967700 977978 458
172657 944220 525
909568 952076 507
102845 937634 525
490076 537330 470
207571 432121 449
157408 246554 443
876649 991064 507
625149 703840 509
125853 179129 383
965071 974103 458
321314 719647 509
270580 730142 509
24420 112766 354
80950 993365 525
626932 631466 341
496346 612579 470
525076 842862 525
30642 567908 470
916799 928177 476
114712 594106 470
48963 91442 351
848812 950264 507
593300 728414 509
354361 673921 509
270206 859788 525
84114 921182 525
743036 799999 468
318554 387574 441
43673 688394 509
931072 939406 445
964506 988100 458
502899 721856 509
349684 580441 470
150209 808038 509
570612 615597 447
907205 923020 476
569745 820033 509
61539 110941 354
262684 856072 525
431255 853835 525
768037 932541 525
124410 281483 443
386417 858706 525
278529 989785 525
875173 964317 507
133400 357031 443
669723 910784 525
361966 432814 449
686193 796243 504
285891 591102 470
326152 812473 509
909084 929074 476
465467 840689 525
91648 322903 443
419228 933491 525
261041 514534 470
554625 805803 509
698338 948966 525
861119 949623 507
403837 487032 449
219173 483402 449
92324 98985 328
206241 769395 509
