1 10 20
100 200 125
201 210 89
900 1000 174
201 300 128
301 400 144
401 500 142
501 600 137
601 700 145
701 800 171
801 900 179
901 1000 174
1 1000 179
16808 475532 449
651696 944643 525
110075 211743 383
27646 852336 525
239717 779382 509
439281 565264 470
243117 486277 449
523641 808102 509
283769 531746 470
379664 542756 470
545200 834644 509
99156 818974 509
131378 572065 470
281683 493297 449
352710 796841 509
809463 901052 525
614076 929369 525
725391 878338 525
380774 582338 470
238708 559606 470
12783 512498 470
820954 902945 525
91902 126885 354
426585 895991 525
187295 640780 509
36648 922179 525
358535 617219 470
516440 571848 452
704124 789169 504
61034 511483 449
455750 729665 509
118710 729658 509
799920 807914 406
541549 847603 525
310264 375092 441
261374 939806 525
29231 409976 443
390812 625003 470
554644 741084 509
3324 341061 443
220364 725893 509
75664 447980 449
548382 935547 525
31687 811962 509
196207 321598 443
782689 821781 468
247985 800259 509
408022 733383 509
132145 937601 525
54037 355017 443
845902 852655 419
784488 956211 525
111468 620586 470
154901 982468 525
478975 723442 509
623661 947838 525
846088 960936 507
268107 854977 525
98486 880856 525
90693 829503 509
400456 674147 509
441601 688898 509
327493 716453 509
121128 205046 383
471395 911644 525
286766 799847 509
181316 842405 525
531596 634654 509
186769 825029 509
861717 974932 507
249858 726883 509
153376 315933 443
633728 820668 504
111893 555945 470
78056 437877 449
498969 938162 525
649366 975748 525
346575 584140 470
112562 558159 470
587851 950240 525
130530 236656 443
46650 477207 449
331031 935299 525
897136 988149 507
141416 714401 509
725508 917296 525
319087 941561 525
560375 607997 434
145450 437094 449
765925 810305 468
308189 598136 470
197010 757540 509
242848 400647 441
414956 896837 525
141161 684269 509
29157 533055 470
337025 701671 509
163249 664527 509
48086 797370 509
25924 455623 449
576724 978803 525
592446 880938 525
89521 302437 443
114146 741138 509
120287 122892 336
412430 490792 444
122778 976770 525
731529 831748 468
274895 535528 470
667 824354 509
402996 739238 509
2917 978990 525
64300 998489 525
690796 831308 504
458270 540985 470
302472 470732 449
121263 919283 525
114723 641914 509
828973 851870 525
30872 223875 386
17574 304400 443
17860 269239 443
171748 233957 443
588822 863438 525
603655 964603 525
277846 887640 525
762469 941559 525
55747 429337 449
497193 646669 509
199811 796972 509
396942 638555 509
42213 530356 470
689570 996575 525
244514 588719 470
76912 992380 525
749362 839560 525
134835 205038 383
423051 961207 525
308317 339388 384
226458 925756 525
301437 542393 470
484909 938966 525
103029 350142 443
7921 35042 311
660669 848079 525
725468 879988 525
266036 580675 470
264826 650949 509
46686 181245 383
665800 756883 504
171549 928841 525
281727 786068 509
205522 661729 509
495858 570970 470
194151 884519 525
609793 842263 525
516747 697839 509
659776 953886 525
187665 222059 386
228921 322462 443
476566 796933 509
621270 984720 525
49898 624011 470
307301 977460 525
239514 577144 470
55669 861145 525
638264 999721 525
862033 980380 507
69129 777854 509
15710 294493 443
209183 646923 509
671059 676111 385
838655 843267 388
340990 986945 525
545726 775846 509
251535 562224 470
602661 930456 525
500473 968741 525
26797 343324 443
314893 722138 509
106135 778344 509
788024 861506 525
64939 820592 509
247353 548320 470
425116 855925 525
405964 720082 509
424433 713503 509
164978 206004 365
46927 674868 509
286747 741075 509
303103 961097 525
247498 909539 525
135241 604318 470
489545 620375 470
214251 826460 509
464215 482862 413
217941 618690 470
425048 822206 509
281048 558924 470
483038 942669 525
175889 434378 449
254295 307665 407
767467 916481 525
202736 670769 509
83390 393514 443
73671 903194 525
191985 754348 509
710418 918220 525
185966 687382 509
272331 850762 525
77985 668353 509
667888 748678 504
791883 830023 468
57213 320542 443
765744 871434 525
193513 791014 509
317200 427329 449
559278 781583 509
40477 661488 509
520077 784131 509
323250 903370 525
625269 856247 525
81814 424085 449
267415 319600 407
452012 825830 509
438937 836995 509
263598 762642 509
491320 811365 509
193053 229299 386
151944 255264 443
9054 258070 443
245436 414834 449
194292 344098 443
120738 159217 383
32076 334665 443
116886 620692 470
55362 902220 525
115603 516902 470
181623 212850 373
741707 973026 525
247145 509505 449
557102 641369 509
355842 383315 423
204894 817172 509
360077 661512 509
7202 646972 509
867580 903163 445
98946 153206 375
27416 149848 375
179907 496303 449
162136 717414 509
757374 849173 525
327028 333131 353
77389 953259 525
303223 621662 470
301492 317427 384
686684 770667 504
535602 855674 525
209084 630869 509
